\relax 
\newlabel{eq:flow_velocity_relation}{{1}{1}}
\@writefile{lof}{\contentsline {figure}{\numberline {1}{\ignorespaces Simple rectangular domain}}{1}}
\newlabel{fig:domain}{{1}{1}}
\newlabel{eq:sum_flow_zero}{{2}{2}}
\newlabel{eq:sum_partials_zero}{{3}{2}}
\newlabel{eq:darcy}{{4}{2}}
\citation{guyer2009fipy}
\newlabel{eq:divthm}{{9}{4}}
\citation{pollock_semianalytical_1988}
\@writefile{lof}{\contentsline {figure}{\numberline {2}{\ignorespaces Homogeneous confined aquifer in Visual Pyflow}}{7}}
\bibdata{user_manual.bib}
\bibcite{guyer2009fipy}{{1}{2009}{{Guyer et~al.}}{{}}}
\bibcite{pollock_semianalytical_1988}{{2}{1988}{{Pollock}}{{}}}
\bibstyle{apalike}
